…
What majors typically enroll in a professors course? Is this by chance
or design? That is a question for the next project, but it is
interesting to take a peak at least.

``` r
inst_maj <- dta %>% group_by(Instructor, Major) %>% count() %>% arrange(desc(n))
inst_maj
```

    ## # A tibble: 80 x 3
    ## # Groups:   Instructor, Major [80]
    ##    Instructor        Major                            n
    ##    <fct>             <fct>                        <int>
    ##  1 Slaughter, Keenan Biology                         31
    ##  2 Whelchel, Noel    Biology                         28
    ##  3 Lewis, Torina     Biology                         27
    ##  4 Harlemon, Maxine  Biology                         22
    ##  5 Kebede, Temesgen  Biology                         17
    ##  6 Djire, Bakary     Biology                         11
    ##  7 Parker, Cassandra Biology                         10
    ##  8 Lewis, Torina     Computer Science                 9
    ##  9 Whelchel, Noel    Computer and Information Sys     9
    ## 10 Djire, Bakary     Computer and Information Sys     8
    ## # ... with 70 more rows
…
